{
    "database": {
        "host": "localhost",
        "port": "5432",
        "dbname": "postgres",
        "schema": "users",
        "user": "admin",
        "password": "password",
        "ssl": "disable"
    },
    "http": {
        "address":":8080"
    }
}